Plants in Danger
…
Which threat has the biggest impact on plants becoming extinct.

After finding the biggest threat, what taxonomic group is effected by it the most?

Hypothesis

The biggest threat to plant extinction is pollution. Pollution is one of the biggest effects on our planet today.

Answering Our Questions

plants %>%
  count(country)

# A tibble: 72 × 2
   country        n
   <chr>      <int>
 1 Angola         1
 2 Argentina      1
 3 Australia      2
 4 Belgium        1
 5 Bermuda        1
 6 Bhutan         2
 7 Bolivia        1
 8 Brazil        10
 9 Burundi       17
10 Cabo Verde     2
# … with 62 more rows
…
By using this count function, it is evident that Madagascar has the highest number of extinct plants with a count of 98. The second highest is United States with a count of 66. The third highest is Ecuador with a count of 52.

plants %>%
  group_by(group) %>%
  count(year_last_seen)

# A tibble: 23 × 3
# Groups:   group [6]
   group            year_last_seen     n
   <chr>            <chr>          <int>
 1 Algae            1960-1979          2
 2 Algae            Before 1900        1
 3 Conifer          1940-1959          1
 4 Cycad            1900-1919          1
 5 Cycad            1960-1979          1
 6 Cycad            1980-1999          1
 7 Cycad            2000-2020          5
 8 Ferns and Allies 1900-1919          1
 9 Ferns and Allies 1960-1979          4
10 Ferns and Allies 2000-2020          3
# … with 13 more rows
…
